5
30 20 40
3 3

6 8
150 100 100
0.6 0.7 1000.0 0.6
0.4
1.5145 1.5191 1.5235

3 0 0
0 -3 0
-3 0 0
0 3 0
0 0 5
0 0 -5

0 1 4
1 2 4
2 3 4
3 0 4
0 1 5
1 2 5
2 3 5
3 0 5

4 4
0 0 255
1.0 0.2 700.0 0.4
0.7
1.1 1.1 1.1

-5 -8 2
-9 -8 0
-7 -13 0
-7 -9 -6

0 1 3
1 2 3
2 0 3
0 1 2

4 2
100 100 100
0.1 0.7 2000.0 0.9
0.0
1.0 1.0 1.0

-40 20 10
-40 -40 10
-40 -40 -10
-40 20 -10

0 1 2
0 2 3

0.5
0 0 8
1

0.7
-4 -4 -8
0

1
5 10 -3
0
